…
``` r
library(tidyverse)
#> ── Attaching packages ───────────────────────────────────────────────────────────────────────────────────────────────────────────────────────────────────────────────────────────────────────────── tidyverse 1.2.1.9000 ──
#> ✔ ggplot2 3.0.0.9000      ✔ purrr   0.2.5      
#> ✔ tibble  1.4.99.9004     ✔ dplyr   0.7.99.9000
#> ✔ tidyr   0.8.1           ✔ stringr 1.3.1      
#> ✔ readr   1.2.0           ✔ forcats 0.3.0
#> ── Conflicts ───────────────────────────────────────────────────────────────────────────────────────────────────────────────────────────────────────────────────────────────────────────────────── tidyverse_conflicts() ──
#> ✖ dplyr::filter() masks stats::filter()
#> ✖ dplyr::lag()    masks stats::lag()
library(autoscore)

data("example_data")
example_data
#> # A tibble: 40 x 4
#>       Id Target                      Response                    human
#>    <dbl> <chr>                       <chr>                       <dbl>
#>  1     1 mate denotes a judgement    made the dinner in it           1
#>  2     1 rampant boasting captain    rubbed against the captain      1
#>  3     1 resting older earring       resting alert hearing           1
#>  4     1 bolder ground from justice  boulder down from dresses       2
#>  5     1 remove and name for stake   remember the name for steak     3
#>  6     1 done with finest handle     dinner finished handle          1
#>  7     1 support with dock and cheer she put the duck in chair       1
#>  8     1 or spent sincere aside      earth bent spent her aside      2
#>  9     1 account for who could knock i can for hookah knock          2
#> 10     1 connect the beer device     connected beard kindle bus      1
#> # … with 30 more rows
```

First, let’s use all the defaults and look at the first 10 rows of the
output.

``` r
example_data %>%
  autoscore() %>%   ## using all the defaults
  as.tibble()       ## to shorted output
#> # A tibble: 40 x 6
#>       id target                response              human autoscore equal
#>    <dbl> <fct>                 <fct>                 <dbl>     <int> <lgl>
#>  1     1 mate denotes a judge… made the dinner in it     1         0 FALSE
#>  2     1 rampant boasting cap… rubbed against the c…     1         1 TRUE 
#>  3     1 resting older earring resting alert hearing     1         1 TRUE 
#>  4     1 bolder ground from j… boulder down from dr…     2         1 FALSE
#>  5     1 remove and name for … remember the name fo…     3         2 FALSE
#>  6     1 done with finest han… dinner finished hand…     1         1 TRUE 
#>  7     1 support with dock an… she put the duck in …     1         0 FALSE
#>  8     1 or spent sincere asi… earth bent spent her…     2         2 TRUE 
#>  9     1 account for who coul… i can for hookah kno…     2         2 TRUE 
#> 10     1 connect the beer dev… connected beard kind…     1         0 FALSE
#> # … with 30 more rows
```

Next, let’s change some of the rules.

``` r
example_data %>%
  autoscore(plural_rule = FALSE, tense_rule = FALSE) %>%
  as.tibble()
#> # A tibble: 40 x 6
#>       id target                response              human autoscore equal
#>    <dbl> <fct>                 <fct>                 <dbl>     <int> <lgl>
#>  1     1 mate denotes a judge… made the dinner in it     1         0 FALSE
#>  2     1 rampant boasting cap… rubbed against the c…     1         1 TRUE 
#>  3     1 resting older earring resting alert hearing     1         1 TRUE 
#>  4     1 bolder ground from j… boulder down from dr…     2         1 FALSE
#>  5     1 remove and name for … remember the name fo…     3         2 FALSE
#>  6     1 done with finest han… dinner finished hand…     1         1 TRUE 
#>  7     1 support with dock an… she put the duck in …     1         0 FALSE
#>  8     1 or spent sincere asi… earth bent spent her…     2         2 TRUE 
#>  9     1 account for who coul… i can for hookah kno…     2         2 TRUE 
#> 10     1 connect the beer dev… connected beard kind…     1         0 FALSE
#> # … with 30 more rows
```

We can also change the output type to “none” to get all the data from
the computation.

``` r
example_data %>%
  autoscore(output = "none")
#> # A tibble: 40 x 10
#>       id target response human diff_target_pre diff_response_p… diff_target
#>    <dbl> <list> <list>   <dbl> <list>          <list>           <list>     
#>  1     1 <chr … <chr [5…     1 <int [4]>       <int [5]>        <lgl [4]>  
#>  2     1 <chr … <chr [4…     1 <int [3]>       <int [4]>        <lgl [3]>  
#>  3     1 <chr … <chr [3…     1 <int [3]>       <int [3]>        <lgl [3]>  
#>  4     1 <chr … <chr [4…     2 <int [4]>       <int [4]>        <lgl [4]>  
#>  5     1 <chr … <chr [5…     3 <int [5]>       <int [5]>        <lgl [5]>  
#>  6     1 <chr … <chr [3…     1 <int [4]>       <int [3]>        <lgl [4]>  
#>  7     1 <chr … <chr [6…     1 <int [5]>       <int [6]>        <lgl [5]>  
#>  8     1 <chr … <chr [5…     2 <int [4]>       <int [5]>        <lgl [4]>  
#>  9     1 <chr … <chr [5…     2 <int [5]>       <int [5]>        <lgl [5]>  
#> 10     1 <chr … <chr [4…     1 <int [4]>       <int [4]>        <lgl [4]>  
#> # … with 30 more rows, and 3 more variables: diff_response <list>,
#> #   count_target <int>, count_response <int>
```

To use the acceptable spelling rule, let’s use the default provided in
`autoscore`. . In the data frame below, the `target` spellings are the
generally accepted spellings that are in the target list of words while
the `acceptable` column are those that should also be counted as
correct.

``` r
autoscore::acceptable_spellings
#> # A tibble: 257 x 2
#>    target   acceptable       
#>    <chr>    <chr>            
#>  1 absent   abcent           
#>  2 achieved achieved, achived
#>  3 acid     asid             
#>  4 advance  advanse          
#>  5 again    agin             
#>  6 alone    aloan            
#>  7 along    a long           
#>  8 among    amung            
#>  9 ancient  ansient          
#> 10 ancient  anceint          
#> # … with 247 more rows
```

Using this, we can provide it to the `autoscore()` function with the
`acceptable_df` argument.

``` r
example_data %>%
  autoscore::autoscore(acceptable_df = autoscore::acceptable_spellings) %>%
  as.tibble()
#> # A tibble: 40 x 6
#>       id target                response              human autoscore equal
#>    <dbl> <fct>                 <fct>                 <dbl>     <int> <lgl>
#>  1     1 mate denotes a judge… made the dinner in it     1         0 FALSE
#>  2     1 rampant boasting cap… rubbed against the c…     1         1 TRUE 
#>  3     1 resting older earring resting alert hearing     1         1 TRUE 
#>  4     1 bolder ground from j… boulder down from dr…     2         2 TRUE 
#>  5     1 remove and name for … remember the name fo…     3         3 TRUE 
#>  6     1 done with finest han… dinner finished hand…     1         1 TRUE 
#>  7     1 support with dock an… she put the duck in …     1         0 FALSE
#>  8     1 or spent sincere asi… earth bent spent her…     2         2 TRUE 
#>  9     1 account for who coul… i can for hookah kno…     2         2 TRUE 
#> 10     1 connect the beer dev… connected beard kind…     1         0 FALSE
#> # … with 30 more rows
```
…
